<svg width="20" height="16" viewBox="0 0 20 16" fill="none" xmlns="http://www.w3.org/2000/svg">
<path d="M18 0H2C0.9 0 0 0.9 0 2V14C0 15.1 0.9 16 2 16H18C19.1 16 20 15.1 20 14V2C20 0.9 19.1 0 18 0ZM17.6 4.3L10.5 8.7C10.2 8.9 9.8 8.9 9.4 8.7L2.4 4.3C2.2 4.1 2 3.8 2 3.5C2 2.8 2.7 2.4 3.3 2.8L10 7L16.7 2.8C17.3 2.5 18 2.9 18 3.5C18 3.8 17.9 4.1 17.6 4.3Z" fill="#1557A5"/>
</svg>
